LHS experiment
…
## visualizing BFGS vs NM?

sum_comb %T>%
    print %>%
    summarize(n.diff = -diff(n), ll.diff = diff(diff)) %>%
    gather(key, value, -run) %>%
    ggplot() +
        geom_boxplot(aes(x = 1, y = value)) +
    facet_wrap(~key, scale = "free")

## Source: local data frame [200 x 4]
## Groups: run [?]
## 
##      run optim     n       diff
##    <chr> <chr> <int>      <dbl>
## 1      1  BFGS    22 -112.65380
## 2      1    NM    10 -112.65345
## 3     10  BFGS    25  -62.80287
## 4     10    NM     5  -62.79957
## 5    100  BFGS    24  -67.49503
## 6    100    NM     6  -67.48947
## 7     11  BFGS    24  -68.04132
## 8     11    NM     6  -68.04015
## 9     12  BFGS    26  -82.18032
## 10    12    NM     9  -82.17879
## # ... with 190 more rows
…
